<svg width="84" height="84" viewBox="0 0 84 84" fill="none" xmlns="http://www.w3.org/2000/svg">
    <rect x="0.507812" width="83" height="84" rx="41.5" fill="#D1FADF" />
    <path
        d="M66.477 39.555V41.8057C66.474 47.0814 64.7657 52.2148 61.6069 56.4403C58.448 60.6658 54.0079 63.757 48.9487 65.2528C43.8895 66.7487 38.4823 66.5691 33.5335 64.7407C28.5847 62.9124 24.3596 59.5334 21.4881 55.1076C18.6167 50.6818 17.2528 45.4463 17.5999 40.182C17.947 34.9178 19.9865 29.9067 23.4143 25.8963C26.842 21.8858 31.4743 19.0909 36.6203 17.9282C41.7663 16.7655 47.1503 17.2975 51.9693 19.4447M66.477 22.2337L42.012 46.7232L34.6724 39.3837"
        stroke="#039855" stroke-width="3" stroke-linecap="round" stroke-linejoin="round" />
</svg>